{
	"name": "jQueryUpload",
	"version": "1.4.7, 2019-07-13",
	"author": ["[http://www.organicdesign.co.nz/aran Aran Dunkley]", "[http://blueimp.net Sebastian Tschan]"],
	"url": "http://www.organicdesign.co.nz/jQueryUpload",
	"descriptionmsg": "jqueryupload-desc",
	"license-name": "[https://www.gnu.org/licenses/gpl-2.0.html GNU General Public Licence 2.0] or later",
	"type": "specialpage",
	"callback": "jQueryUpload::onRegistration",
	"AutoloadClasses": {
		"jQueryUpload": "jQueryUpload_body.php",
		"ApijQueryUpload": "ApijQueryUpload.php",
		"ApiFormatFile": "ApiFormatFile.php",
		"UploadHandler": "upload/server/php/upload.class.php",
		"MWUploadHandler": "MWUploadHandler.php"
	},
	"Hooks": {
		"LanguageGetMagic": ["jQueryUpload::onLanguageGetMagic"]
	},
	"config": {
		"JQUploadIconPrefix": "/icons/Farm-Fresh_file_extension_",
		"JQUploadFileMagic": "file",
		"JQUploadFileLinkPopup": true
	},
	"ExtensionMessagesFiles": {
		"jQueryUploadAlias": "jQueryUpload.alias.php",
		"jQueryUploadMagic": "jQueryUpload.i18n.magic.php"
	},
	"MessagesDirs": {
		"jQueryUpload": ["i18n"]
	},
	"ResourceModules": {
		"ext.jqueryupload": {
			"styles": ["styles/jqueryupload.css"],
			"scripts": [
				"blueimp/JavaScript-Templates/tmpl.min.js",
				"blueimp/JavaScript-Load-Image/load-image.min.js",
				"blueimp/JavaScript-Canvas-to-Blob/canvas-to-blob.min.js",
				"blueimp/cdn/js/bootstrap.min.js",
				"blueimp/Bootstrap-Image-Gallery/js/bootstrap-image-gallery.min.js",
				"upload/js/jquery.iframe-transport.js",
				"upload/js/jquery.fileupload.js",
				"upload/js/jquery.fileupload-fp.js",
				"upload/js/jquery.fileupload-ui.js",
				"upload/js/locale.js",
				"upload/js/cors/jquery.xdr-transport.js",
				"modules/jqueryupload.js"
			],
			"dependencies": ["mediawiki.util", "jquery.ui"]
		}
	},
	"ResourceFileModulePaths": {
		"localBasePath": "",
		"remoteExtPath": "jQueryUpload"
	}
}
